{
  "page": 1,
  "total_pages": 1000,
  "total_results": 20000,
  "results": [
    {
      "id": 512200,
      "video": false,
      "vote_count": 2262,
      "vote_average": 6.8,
      "title": "Jumanji: The Next Level",
      "release_date": "2019-12-04",
      "original_language": "en",
      "original_title": "Jumanji: The Next Level",
      "genre_ids": [
        28,
        12,
        35,
        14
      ],
      "backdrop_path": "/hreiLoPysWG79TsyQgMzFKaOTF5.jpg",
      "adult": false,
      "overview": "As the gang return to Jumanji to rescue one of their own, they discover that nothing is as they expect. The players will have to brave parts unknown and unexplored in order to escape the world’s most dangerous game.",
      "poster_path": "/bB42KDdfWkOvmzmYkmK58ZlCa9P.jpg",
      "popularity": 250.228,
      "media_type": "movie"
    },
    {
      "id": 330457,
      "video": false,
      "vote_count": 2847,
      "vote_average": 7.1,
      "title": "Frozen II",
      "release_date": "2019-11-20",
      "original_language": "en",
      "original_title": "Frozen II",
      "genre_ids": [
        12,
        16,
        10751
      ],
      "backdrop_path": "/xJWPZIYOEFIjZpBL7SVBGnzRYXp.jpg",
      "adult": false,
      "overview": "Elsa, Anna, Kristoff and Olaf head far into the forest to learn the truth about an ancient mystery of their kingdom.",
      "poster_path": "/pjeMs3yqRmFL3giJy4PMXWZTTPa.jpg",
      "popularity": 190.236,
      "media_type": "movie"
    },
    {
      "adult": false,
      "backdrop_path": "/jOzrELAzFxtMx2I4uDGHOotdfsS.jpg",
      "genre_ids": [
        28,
        12,
        878
      ],
      "id": 181812,
      "original_language": "en",
      "original_title": "Star Wars: The Rise of Skywalker",
      "overview": "The surviving Resistance faces the First Order once again as the journey of Rey, Finn and Poe Dameron continues. With the power and knowledge of generations behind them, the final battle begins.",
      "poster_path": "/db32LaOibwEliAmSL2jjDF6oDdj.jpg",
      "release_date": "2019-12-18",
      "title": "Star Wars: The Rise of Skywalker",
      "video": false,
      "vote_average": 6.5,
      "vote_count": 3153,
      "popularity": 71.575,
      "media_type": "movie"
    },
    {
      "id": 530915,
      "video": false,
      "vote_count": 3235,
      "vote_average": 8,
      "title": "1917",
      "release_date": "2019-12-25",
      "original_language": "en",
      "original_title": "1917",
      "genre_ids": [
        28,
        18,
        10752
      ],
      "backdrop_path": "/cqa3sa4c4jevgnEJwq3CMF8UfTG.jpg",
      "adult": false,
      "overview": "At the height of the First World War, two young British soldiers must cross enemy territory and deliver a message that will stop a deadly attack on hundreds of soldiers.",
      "poster_path": "/iZf0KyrE25z1sage4SYFLCCrMi9.jpg",
      "popularity": 253.76,
      "media_type": "movie"
    },
    {
      "id": 581600,
      "video": false,
      "vote_count": 329,
      "vote_average": 6.7,
      "title": "Spenser Confidential",
      "release_date": "2020-03-06",
      "original_language": "en",
      "original_title": "Spenser Confidential",
      "genre_ids": [
        28,
        35,
        53
      ],
      "backdrop_path": "/ftODZXaXpWtV5XFD8gS9n9KwLDr.jpg",
      "adult": false,
      "overview": "Spenser, a former Boston patrolman who just got out from prison, teams up with Hawk, an aspiring fighter, to unravel the truth behind the death of two police officers.",
      "poster_path": "/fePczipv6ZzDO2uoww4vTAu2Sq3.jpg",
      "popularity": 128.968,
      "media_type": "movie"
    },
    {
      "id": 496243,
      "video": false,
      "vote_count": 5166,
      "vote_average": 8.6,
      "title": "Parasite",
      "release_date": "2019-05-30",
      "original_language": "ko",
      "original_title": "기생충",
      "genre_ids": [
        35,
        18,
        53
      ],
      "backdrop_path": "/TU9NIjwzjoKPwQHoHshkFcQUCG.jpg",
      "adult": false,
      "overview": "All unemployed, Ki-taek's family takes peculiar interest in the wealthy and glamorous Parks for their livelihood until they get entangled in an unexpected incident.",
      "poster_path": "/7IiTTgloJzvGI1TAYymCfbfl3vT.jpg",
      "popularity": 116.876,
      "media_type": "movie"
    },
    {
      "id": 454626,
      "video": false,
      "vote_count": 990,
      "vote_average": 7.3,
      "title": "Sonic the Hedgehog",
      "release_date": "2020-02-12",
      "original_language": "en",
      "original_title": "Sonic the Hedgehog",
      "genre_ids": [
        28,
        35,
        878,
        10751
      ],
      "backdrop_path": "/stmYfCUGd8Iy6kAMBr6AmWqx8Bq.jpg",
      "adult": false,
      "overview": "Based on the global blockbuster videogame franchise from Sega, Sonic the Hedgehog tells the story of the world’s speediest hedgehog as he embraces his new home on Earth. In this live-action adventure comedy, Sonic and his new best friend team up to defend the planet from the evil genius Dr. Robotnik and his plans for world domination.",
      "poster_path": "/aQvJ5WPzZgYVDrxLX4R6cLJCEaQ.jpg",
      "popularity": 269.095,
      "media_type": "movie"
    },
    {
      "id": 359724,
      "video": false,
      "vote_count": 1851,
      "vote_average": 7.8,
      "title": "Ford v Ferrari",
      "release_date": "2019-11-13",
      "original_language": "en",
      "original_title": "Ford v Ferrari",
      "genre_ids": [
        28,
        18
      ],
      "backdrop_path": "/n3UanIvmnBlH531pykuzNs4LbH6.jpg",
      "adult": false,
      "overview": "American car designer Carroll Shelby and the British-born driver Ken Miles work together to battle corporate interference, the laws of physics, and their own personal demons to build a revolutionary race car for Ford Motor Company and take on the dominating race cars of Enzo Ferrari at the 24 Hours of Le Mans in France in 1966.",
      "poster_path": "/6ApDtO7xaWAfPqfi2IARXIzj8QS.jpg",
      "popularity": 103.314,
      "media_type": "movie"
    },
    {
      "id": 458897,
      "video": false,
      "vote_count": 669,
      "vote_average": 6.4,
      "title": "Charlie's Angels",
      "release_date": "2019-11-14",
      "original_language": "en",
      "original_title": "Charlie's Angels",
      "genre_ids": [
        28,
        12,
        35
      ],
      "backdrop_path": "/a0xTB1vBxMGt6LGG4N7k1wO9lfL.jpg",
      "adult": false,
      "overview": "When a systems engineer blows the whistle on a dangerous technology, Charlie's Angels from across the globe are called into action, putting their lives on the line to protect society.",
      "poster_path": "/1DPUFG6QnGqzpvEaDEv7TaepycM.jpg",
      "popularity": 72.295,
      "media_type": "movie"
    },
    {
      "id": 495764,
      "video": false,
      "vote_count": 1325,
      "vote_average": 6.8,
      "title": "Birds of Prey (and the Fantabulous Emancipation of One Harley Quinn)",
      "release_date": "2020-02-05",
      "original_language": "en",
      "original_title": "Birds of Prey (and the Fantabulous Emancipation of One Harley Quinn)",
      "genre_ids": [
        28,
        35,
        80
      ],
      "backdrop_path": "/2s1ofreBI8EFzIyL3SQrLRqO5Zx.jpg",
      "adult": false,
      "overview": "After her breakup with the Joker, Harley Quinn joins forces with singer Black Canary, assassin Huntress, and police detective Renee Montoya to help a young girl named Cassandra, who had a hit placed on her after she stole a rare diamond from crime lord Roman Sionis.",
      "poster_path": "/h4VB6m0RwcicVEZvzftYZyKXs6K.jpg",
      "popularity": 177.152,
      "media_type": "movie"
    },
    {
      "id": 431693,
      "video": false,
      "vote_count": 346,
      "vote_average": 7.3,
      "title": "Spies in Disguise",
      "release_date": "2019-12-24",
      "original_language": "en",
      "original_title": "Spies in Disguise",
      "genre_ids": [
        28,
        12,
        16,
        35
      ],
      "backdrop_path": "/qlYxtqVfu2LOdvYMMDPCSGX0Oz0.jpg",
      "adult": false,
      "overview": "Super spy Lance Sterling and scientist Walter Beckett are almost exact opposites. Lance is smooth, suave and debonair. Walter is… not. But what Walter lacks in social skills he makes up for in smarts and invention, creating the awesome gadgets Lance uses on his epic missions. But when events take an unexpected turn, Walter and Lance suddenly have to rely on each other in a whole new way.",
      "poster_path": "/30YacPAcxpNemhhwX0PVUl9pVA3.jpg",
      "popularity": 104.33,
      "media_type": "movie"
    },
    {
      "id": 475557,
      "video": false,
      "vote_count": 9843,
      "vote_average": 8.2,
      "title": "Joker",
      "release_date": "2019-10-02",
      "original_language": "en",
      "original_title": "Joker",
      "genre_ids": [
        80,
        18,
        53
      ],
      "backdrop_path": "/n6bUvigpRFqSwmPp1m2YADdbRBc.jpg",
      "adult": false,
      "overview": "During the 1980s, a failed stand-up comedian is driven insane and turns to a life of crime and chaos in Gotham City while becoming an infamous psychopathic crime figure.",
      "poster_path": "/udDclJoHjfjb8Ekgsd4FDteOkCU.jpg",
      "popularity": 136.903,
      "media_type": "movie"
    },
    {
      "id": 546554,
      "video": false,
      "vote_count": 2741,
      "vote_average": 7.8,
      "title": "Knives Out",
      "release_date": "2019-11-27",
      "original_language": "en",
      "original_title": "Knives Out",
      "genre_ids": [
        35,
        9648
      ],
      "backdrop_path": "/cjTQSwcsfVdirSFSHNBXRGkxmWa.jpg",
      "adult": false,
      "overview": "When renowned crime novelist Harlan Thrombey is found dead at his estate just after his 85th birthday, the inquisitive and debonair Detective Benoit Blanc is mysteriously enlisted to investigate. From Harlan's dysfunctional family to his devoted staff, Blanc sifts through a web of red herrings and self-serving lies to uncover the truth behind Harlan's untimely death.",
      "poster_path": "/pThyQovXQrw2m0s9x82twj48Jq4.jpg",
      "popularity": 99.518,
      "media_type": "movie"
    },
    {
      "id": 465086,
      "video": false,
      "vote_count": 179,
      "vote_average": 5.2,
      "title": "The Grudge",
      "release_date": "2020-01-02",
      "original_language": "en",
      "original_title": "The Grudge",
      "genre_ids": [
        27,
        9648
      ],
      "backdrop_path": "/h4x5aN52nq78PM8zXD77THhZTB.jpg",
      "adult": false,
      "overview": "After a young mother murders her family in her own house, a detective attempts to investigate the mysterious case, only to discover that the house is cursed by a vengeful ghost. Now targeted by the demonic spirits, the detective must do anything to protect herself and her family from harm.",
      "poster_path": "/vN7JHlHOT9rHNDU27tfYqhABBj5.jpg",
      "popularity": 81.477,
      "media_type": "movie"
    },
    {
      "id": 290859,
      "video": false,
      "vote_count": 1686,
      "vote_average": 6.3,
      "title": "Terminator: Dark Fate",
      "release_date": "2019-10-23",
      "original_language": "en",
      "original_title": "Terminator: Dark Fate",
      "genre_ids": [
        28,
        878
      ],
      "backdrop_path": "/riTANvQ8GKmQbgtC1ps3OfkU43A.jpg",
      "adult": false,
      "overview": "Decades after Sarah Connor prevented Judgment Day, a lethal new Terminator is sent to eliminate the future leader of the resistance. In a fight to save mankind, battle-hardened Sarah Connor teams up with an unexpected ally and an enhanced super soldier to stop the deadliest Terminator yet.",
      "poster_path": "/vqzNJRH4YyquRiWxCCOH0aXggHI.jpg",
      "popularity": 78.294,
      "media_type": "movie"
    },
    {
      "id": 522162,
      "video": false,
      "vote_count": 452,
      "vote_average": 6.8,
      "title": "Midway",
      "release_date": "2019-11-06",
      "original_language": "en",
      "original_title": "Midway",
      "genre_ids": [
        28,
        18,
        36,
        10752
      ],
      "backdrop_path": "/xjP88DFPCQ81mbZHXFscyYtGskT.jpg",
      "adult": false,
      "overview": "The story of the Battle of Midway, and the leaders and soldiers who used their instincts, fortitude and bravery to overcome massive odds.",
      "poster_path": "/hj8pyoNnynGeJTAbl7jcLZO8Uhx.jpg",
      "popularity": 53.887,
      "media_type": "movie"
    },
    {
      "id": 292011,
      "video": false,
      "vote_count": 493,
      "vote_average": 7.5,
      "title": "Richard Jewell",
      "release_date": "2019-12-13",
      "original_language": "en",
      "original_title": "Richard Jewell",
      "genre_ids": [
        18
      ],
      "backdrop_path": "/zAfG4ZmpNfKSyr8MVn1CHjgYYXx.jpg",
      "adult": false,
      "overview": "Directed by Clint Eastwood and based on true events, \"Richard Jewell\" is a story of what happens when what is reported as fact obscures the truth. \"There is a bomb in Centennial Park. You have thirty minutes.\" The world is first introduced to Richard Jewell as the security guard who reports finding the device at the 1996 Atlanta bombing-his report making him a hero whose swift actions save countless lives. But within days, the law enforcement wannabe becomes the FBI's number one suspect, vilified by press and public alike, his life ripped apart.  Richard Jewell thinks quick, works fast, and saves hundreds, perhaps thousands, of lives after a domestic terrorist plants several pipe bombs and they explode during a concert, only to be falsely suspected of the crime by sloppy FBI work and sensational media coverage.",
      "poster_path": "/5Lgkm8jt4roAFPZQ52fKMhVmDaZ.jpg",
      "popularity": 57.225,
      "media_type": "movie"
    },
    {
      "id": 331482,
      "video": false,
      "vote_count": 1357,
      "vote_average": 8,
      "title": "Little Women",
      "release_date": "2019-12-25",
      "original_language": "en",
      "original_title": "Little Women",
      "genre_ids": [
        18,
        10749
      ],
      "backdrop_path": "/3uTxPIdVEXxHpsHOHdJC24QebBV.jpg",
      "adult": false,
      "overview": "Four sisters come of age in America in the aftermath of the Civil War.",
      "poster_path": "/mSmiB8XjUnR1GSIljuCPGsk0cwX.jpg",
      "popularity": 62.502,
      "media_type": "movie"
    },
    {
      "id": 508439,
      "video": false,
      "vote_count": 194,
      "vote_average": 8.1,
      "title": "Onward",
      "release_date": "2020-02-29",
      "original_language": "en",
      "original_title": "Onward",
      "genre_ids": [
        12,
        16,
        35,
        14,
        10751
      ],
      "backdrop_path": "/xFxk4vnirOtUxpOEWgA1MCRfy6J.jpg",
      "adult": false,
      "overview": "In a suburban fantasy world, two teenage elf brothers embark on an extraordinary quest to discover if there is still a little magic left out there.",
      "poster_path": "/f4aul3FyD3jv3v4bul1IrkWZvzq.jpg",
      "popularity": 71.788,
      "media_type": "movie"
    },
    {
      "id": 515001,
      "video": false,
      "vote_count": 2377,
      "vote_average": 8.1,
      "title": "Jojo Rabbit",
      "release_date": "2019-10-18",
      "original_language": "en",
      "original_title": "Jojo Rabbit",
      "genre_ids": [
        35,
        18,
        10752
      ],
      "backdrop_path": "/agoBZfL1q5G79SD0npArSlJn8BH.jpg",
      "adult": false,
      "overview": "A World War II satire that follows a lonely German boy whose world view is turned upside down when he discovers his single mother is hiding a young Jewish girl in their attic. Aided only by his idiotic imaginary friend, Adolf Hitler, Jojo must confront his blind nationalism.",
      "poster_path": "/7GsM4mtM0worCtIVeiQt28HieeN.jpg",
      "popularity": 47.656,
      "media_type": "movie"
    }
  ]
}
